%YAML 1.1
%TAG !u! tag:unity3d.com,2011:
--- !u!114 &11400000
MonoBehaviour:
  m_ObjectHideFlags: 0
  m_CorrespondingSourceObject: {fileID: 0}
  m_PrefabInternal: {fileID: 0}
  m_GameObject: {fileID: 0}
  m_Enabled: 1
  m_EditorHideFlags: 0
  m_Script: {fileID: 11500000, guid: c2f8970808f6a6f40b38d605e872bfab, type: 3}
  m_Name: FoodFactory
  m_EditorClassIdentifier: 
  Id: 207
  BuildingType: 2
  Width: 5
  Height: 2
  Sprite: {fileID: 21300000, guid: 13c5165df89b6bc4397fc3926fef5316, type: 3}
  BuildingPrefab: {fileID: 1195559494251726, guid: 54acea872a9897a419bcabf84a032c92,
    type: 2}
  BuildingColor: {r: 0.8062924, g: 0.54254186, b: 0.9056604, a: 1}
  Cost: 200
  StayInBuildMode: 0
  Consumes:
  - {fileID: 11400000, guid: c5ce39e890a4d8146b466315e4128975, type: 2}
  - {fileID: 11400000, guid: 12013422f2d448340a000b94d05d5975, type: 2}
  - {fileID: 11400000, guid: 1c98ee8ad8e1d9346b6826f0f9a87870, type: 2}
  Produces:
  - {fileID: 11400000, guid: b01f70c7e2194a948aea1c9f95845955, type: 2}
  GoldProduction: 0
