%YAML 1.1
%TAG !u! tag:unity3d.com,2011:
--- !u!114 &11400000
MonoBehaviour:
  m_ObjectHideFlags: 0
  m_CorrespondingSourceObject: {fileID: 0}
  m_PrefabInternal: {fileID: 0}
  m_GameObject: {fileID: 0}
  m_Enabled: 1
  m_EditorHideFlags: 0
  m_Script: {fileID: 11500000, guid: c2f8970808f6a6f40b38d605e872bfab, type: 3}
  m_Name: LeafStickFactory
  m_EditorClassIdentifier: 
  Id: 201
  BuildingType: 2
  Width: 4
  Height: 2
  Sprite: {fileID: 21300000, guid: 47c030df11e984e4188f7958cadc26ac, type: 3}
  BuildingPrefab: {fileID: 1136054492876268, guid: d9f8a94a9de10894a9c3563325a457b1,
    type: 2}
  BuildingColor: {r: 0.654008, g: 0.8113208, b: 0.62379855, a: 1}
  Cost: 50
  StayInBuildMode: 0
  Consumes:
  - {fileID: 11400000, guid: ab2900e7949271b4a8bce1fe65e212dc, type: 2}
  Produces:
  - {fileID: 11400000, guid: 8dfba7b16d1034f46acec6e7f6af096b, type: 2}
  - {fileID: 11400000, guid: 6f0de64f5e7788c47b50f208fe8455fe, type: 2}
  GoldProduction: 0
