%YAML 1.1
%TAG !u! tag:unity3d.com,2011:
--- !u!114 &11400000
MonoBehaviour:
  m_ObjectHideFlags: 0
  m_CorrespondingSourceObject: {fileID: 0}
  m_PrefabInternal: {fileID: 0}
  m_GameObject: {fileID: 0}
  m_Enabled: 1
  m_EditorHideFlags: 0
  m_Script: {fileID: 11500000, guid: d975196db4a8e3542905b647b8b8da8b, type: 3}
  m_Name: Berries
  m_EditorClassIdentifier: 
  Type: 8
  SecondsToProduce: 10
  Sprite: {fileID: 21300000, guid: 697007136e3c6b14f984e78be76045ae, type: 3}
