%YAML 1.1
%TAG !u! tag:unity3d.com,2011:
--- !u!114 &11400000
MonoBehaviour:
  m_ObjectHideFlags: 0
  m_CorrespondingSourceObject: {fileID: 0}
  m_PrefabInternal: {fileID: 0}
  m_GameObject: {fileID: 0}
  m_Enabled: 1
  m_EditorHideFlags: 0
  m_Script: {fileID: 11500000, guid: d975196db4a8e3542905b647b8b8da8b, type: 3}
  m_Name: Gold
  m_EditorClassIdentifier: 
  Type: 3
  SecondsToProduce: 2
  Sprite: {fileID: 21300000, guid: 32a03761068479047aa0f01b4a2894b7, type: 3}
